Message-ID: <e6287374a38f98203dceb1cb32811ec5@staging.gd-server.com>
Date: Mon, 03 Apr 2017 04:21:32 -0400
Subject: Invitation
From: Paperless <usmanmq0@gmail.com>
To: ayeshaaslam32@gmail.com
MIME-Version: 1.0
Content-Type: multipart/alternative;
 boundary="_=_swift_v4_1491207692_c872a55bad8bc8328ae31751c262819a_=_"


--_=_swift_v4_1491207692_c872a55bad8bc8328ae31751c262819a_=_
Content-Type: text/plain; charset=utf-8
Content-Transfer-Encoding: quoted-printable

<p style=3D'font:normal 18px Arial,serif'>Evetn Invitation:</p>
         =
                  Dear Parents: <br />
                           we have=
 organized a small event, and want a confirmation that will you send your c=
hild in that Event . Following link is of Android Base application.<br />=

                           Please Download the application, install and =
login in to your account, and send us your confirmation.<br/>
           =
                Application link :-  <a href=3D'http://app.paperless.com/'>=
 Paperless </a> <br/> <br/>
                           <strong> Login Cre=
dentials:- </strong> <br />
                           <span> Email :- <s=
pan>ayeshaaslam32@gmail.com <br />
                           <span> Pass=
word :- </span> 87c6de6b <br /> <br />
                           Sincere=
ly,=20
 Paperless</p>

--_=_swift_v4_1491207692_c872a55bad8bc8328ae31751c262819a_=_
Content-Type: text/html; charset=utf-8
Content-Transfer-Encoding: quoted-printable

<p style=3D'font:normal 18px Arial,serif'>Evetn Invitation:</p>
         =
                  Dear Parents: <br />
                           we have=
 organized a small event, and want a confirmation that will you send your c=
hild in that Event . Following link is of Android Base application.<br />=

                           Please Download the application, install and =
login in to your account, and send us your confirmation.<br/>
           =
                Application link :-  <a href=3D'http://app.paperless.com/'>=
 Paperless </a> <br/> <br/>
                           <strong> Login Cre=
dentials:- </strong> <br />
                           <span> Email :- <s=
pan>ayeshaaslam32@gmail.com <br />
                           <span> Pass=
word :- </span> 87c6de6b <br /> <br />
                           Sincere=
ly,=20
 Paperless</p>

--_=_swift_v4_1491207692_c872a55bad8bc8328ae31751c262819a_=_--
