Message-ID: <f6ce3dae7c3b1015b8ff3593419e4245@staging.gd-server.com>
Date: Mon, 03 Apr 2017 03:22:58 -0400
Subject: Invitation
From: Paperless <usmanmq0@gmail.com>
To: husnainshabbir0@gmail.com
MIME-Version: 1.0
Content-Type: multipart/alternative;
 boundary="_=_swift_v4_1491204178_a5fb70428253efdf5bd9ab53150d6b42_=_"


--_=_swift_v4_1491204178_a5fb70428253efdf5bd9ab53150d6b42_=_
Content-Type: text/plain; charset=utf-8
Content-Transfer-Encoding: quoted-printable

<p style=3D'font:normal 18px Arial,serif'>Evetn Invitation:</p>
         =
               Dear Parents: <br />
                        we have organ=
ized a small event, and want a confirmation that will you send your child i=
n that Event . Please Confirm us from Andriod base application by filling u=
p form.<br/>
                        Sincerely,=20
 Paperless </p>

--_=_swift_v4_1491204178_a5fb70428253efdf5bd9ab53150d6b42_=_
Content-Type: text/html; charset=utf-8
Content-Transfer-Encoding: quoted-printable

<p style=3D'font:normal 18px Arial,serif'>Evetn Invitation:</p>
         =
               Dear Parents: <br />
                        we have organ=
ized a small event, and want a confirmation that will you send your child i=
n that Event . Please Confirm us from Andriod base application by filling u=
p form.<br/>
                        Sincerely,=20
 Paperless </p>

--_=_swift_v4_1491204178_a5fb70428253efdf5bd9ab53150d6b42_=_--
