Message-ID: <d2c589d0d5e67fbfdd81e7ce11e03bf0@www.rockinhfarmtoys.com>
Date: Mon, 24 Jul 2017 04:50:22 -0600
Subject: Invitation
From: Paperless <usmanmq0@gmail.com>
To: testingashtex1@gmail.com
MIME-Version: 1.0
Content-Type: multipart/alternative;
 boundary="_=_swift_v4_1500893422_15aa2bed9abcc2b9fca714543510b002_=_"


--_=_swift_v4_1500893422_15aa2bed9abcc2b9fca714543510b002_=_
Content-Type: text/plain; charset=utf-8
Content-Transfer-Encoding: quoted-printable

<p style=3D'font:normal 18px Arial,serif'>Evetn Invitation:</p>
         =
                  Dear Parents: <br />
                           we have=
 organized a small event, and want a confirmation that will you send your c=
hild in that Event . Following link is of Android Base application.<br />=

                           Please Download the application, install and =
login in to your account, and send us your confirmation.<br/>
           =
                Application link :-  <a href=3D'http://app.paperless.com/'>=
 Paperless </a> <br/> <br/>
                           <strong> Login Cre=
dentials:- </strong> <br />
                           <span> Email :- <s=
pan>testingashtex1@gmail.com <br />
                           <span> Pas=
sword :- </span> 96288d97 <br /> <br />
                           Sincer=
ely,=20
 Paperless</p>

--_=_swift_v4_1500893422_15aa2bed9abcc2b9fca714543510b002_=_
Content-Type: text/html; charset=utf-8
Content-Transfer-Encoding: quoted-printable

<p style=3D'font:normal 18px Arial,serif'>Evetn Invitation:</p>
         =
                  Dear Parents: <br />
                           we have=
 organized a small event, and want a confirmation that will you send your c=
hild in that Event . Following link is of Android Base application.<br />=

                           Please Download the application, install and =
login in to your account, and send us your confirmation.<br/>
           =
                Application link :-  <a href=3D'http://app.paperless.com/'>=
 Paperless </a> <br/> <br/>
                           <strong> Login Cre=
dentials:- </strong> <br />
                           <span> Email :- <s=
pan>testingashtex1@gmail.com <br />
                           <span> Pas=
sword :- </span> 96288d97 <br /> <br />
                           Sincer=
ely,=20
 Paperless</p>

--_=_swift_v4_1500893422_15aa2bed9abcc2b9fca714543510b002_=_--
