Message-ID: <17851a07a21fa3f3cbbff8009846939a@staging.gd-server.com>
Date: Tue, 04 Apr 2017 01:55:15 -0400
Subject: Invitation
From: Paperless <usmanmq0@gmail.com>
To: usman4qcs@gmail.com
MIME-Version: 1.0
Content-Type: multipart/alternative;
 boundary="_=_swift_v4_1491285315_56bca06ce7bc2d06b39edea8bc205813_=_"


--_=_swift_v4_1491285315_56bca06ce7bc2d06b39edea8bc205813_=_
Content-Type: text/plain; charset=utf-8
Content-Transfer-Encoding: quoted-printable

<p style=3D'font:normal 18px Arial,serif'>Evetn Invitation:</p>
         =
               Dear Parents: <br />
                        we have organ=
ized a small event, and want a confirmation that will you send your child i=
n that Event . Please Confirm us from Andriod base application by filling u=
p form.<br/>
                        Sincerely,=20
 Paperless </p>

--_=_swift_v4_1491285315_56bca06ce7bc2d06b39edea8bc205813_=_
Content-Type: text/html; charset=utf-8
Content-Transfer-Encoding: quoted-printable

<p style=3D'font:normal 18px Arial,serif'>Evetn Invitation:</p>
         =
               Dear Parents: <br />
                        we have organ=
ized a small event, and want a confirmation that will you send your child i=
n that Event . Please Confirm us from Andriod base application by filling u=
p form.<br/>
                        Sincerely,=20
 Paperless </p>

--_=_swift_v4_1491285315_56bca06ce7bc2d06b39edea8bc205813_=_--
